id,name,model_id:id,group_id:id,perm_read,perm_write,perm_create,perm_unlink
access_product_boq_type,product.boq.type,model_product_boq_type,hr.group_hr_user,1,1,0,0
access_product_boq_type_manager,product.boq.type,model_product_boq_type,hr.group_hr_manager,1,1,1,1
access_job_type,project.job.type,model_project_job_type,hr.group_hr_user,1,1,0,0
access_job_type_manager,project.job.type,model_project_job_type,hr.group_hr_manager,1,1,1,1
access_customer_inquiry,customer.inquiry,model_customer_inquiry,hr.group_hr_user,1,1,0,0
access_customer_inquiry_manager,customer.inquiry,model_customer_inquiry,hr.group_hr_manager,1,1,1,1

